02:34:34	Michael Okodugha:	hello
02:35:20	Michael Okodugha:	pls add me
03:15:29	Uzoma Emeka:	dare  I don't have git lab setup done yet...
03:15:37	Uzoma Emeka:	i think i missed out
10:10:10    upseaj Ade:     LETS CALL IT A DAY
